Morality in the time of cognitive famine - General supplementary
…
Numerically (in descending order of estimated participant span):

library(dplyr)
mcp:::tidy_samples(fit_str, varying = TRUE, population = FALSE, absolute = TRUE) %>%
  group_by(id) %>%
  summarise(
    mean = mean(cp_1_id),
    lower = quantile(cp_1_id, 0.025),
    upper = quantile(cp_1_id, 0.975)
  ) %>%
  arrange(desc(mean))

## `summarise()` ungrouping output (override with `.groups` argument)

## # A tibble: 81 x 4
##    id     mean lower upper
##    <fct> <dbl> <dbl> <dbl>
##  1 71     4.87  4.40  5.20
##  2 60     4.86  4.39  5.20
##  3 34     4.83  4.36  5.17
##  4 66     4.79  4.24  5.17
##  5 P2     4.73  3.96  5.14
##  6 59     4.67  3.99  5.12
##  7 70     4.60  3.92  5.08
##  8 P8     4.55  3.76  5.09
##  9 40     4.52  3.79  5.04
## 10 67     4.50  3.80  5.03
## # ... with 71 more rows
